[gd_resource type="DynamicFont" load_steps=2 format=2]

[ext_resource path="res://Assets/GUI/Audiowide-Regular.ttf" type="DynamicFontData" id=1]

[resource]
size = 24
use_mipmaps = true
font_data = ExtResource( 1 )
