; Engine configuration file.
; It's best edited using the editor UI and not directly,
; since the parameters that go here are not all obvious.
;
; Format:
;   [section] ; section goes between []
;   param=value ; assign values to parameters

config_version=4

_global_script_classes=[ {
"base": "Spatial",
"class": "BaddieBase",
"language": "GDScript",
"path": "res://Elements/Baddies/BaddieBase.gd"
}, {
"base": "StaticBody",
"class": "Baddie_Structure",
"language": "GDScript",
"path": "res://Elements/Baddies/TowerBase.gd"
}, {
"base": "KinematicBody",
"class": "BasePlayer",
"language": "GDScript",
"path": "res://Elements/TankCharacter/BasePlayer.gd"
}, {
"base": "Spatial",
"class": "BaseSpawner",
"language": "GDScript",
"path": "res://Elements/BaseSpawner.gd"
}, {
"base": "Area",
"class": "BuzzardShot",
"language": "GDScript",
"path": "res://Elements/Baddies/Fliers/BuzzardShot.gd"
}, {
"base": "Reference",
"class": "ControlsContainer",
"language": "GDScript",
"path": "res://Elements/TankCharacter/ControlsContainer.gd"
}, {
"base": "Reference",
"class": "DamageData",
"language": "GDScript",
"path": "res://Elements/DamageData.gd"
}, {
"base": "KinematicBody",
"class": "FlierBase",
"language": "GDScript",
"path": "res://Elements/Baddies/Fliers/FlierBase.gd"
}, {
"base": "Node",
"class": "GameManager",
"language": "GDScript",
"path": "res://Elements/GamePlay/Gameplay.gd"
}, {
"base": "VoxelLodTerrain",
"class": "PlanetOne",
"language": "GDScript",
"path": "res://Levels/PlanetOne.gd"
}, {
"base": "Area",
"class": "Projectile",
"language": "GDScript",
"path": "res://Elements/Projectiles/Projectile.gd"
}, {
"base": "BasePlayer",
"class": "ShooterController",
"language": "GDScript",
"path": "res://Elements/TankCharacter/ShooterController.gd"
}, {
"base": "KinematicBody",
"class": "TankController",
"language": "GDScript",
"path": "res://Elements/TankCharacter/TankController.gd"
}, {
"base": "VoxelGenerator",
"class": "VoxelSphere",
"language": "GDScript",
"path": "res://Assets/PlanetGen/VoxelSphere.gd"
}, {
"base": "VoxelGenerator",
"class": "VoxelTest000",
"language": "GDScript",
"path": "res://Assets/PlanetGen/VoxelTest000.gd"
} ]
_global_script_class_icons={
"BaddieBase": "",
"Baddie_Structure": "",
"BasePlayer": "",
"BaseSpawner": "",
"BuzzardShot": "",
"ControlsContainer": "",
"DamageData": "",
"FlierBase": "",
"GameManager": "",
"PlanetOne": "",
"Projectile": "",
"ShooterController": "",
"TankController": "",
"VoxelSphere": "",
"VoxelTest000": ""
}

[application]

config/name="Moon Tanks"
run/main_scene="res://Levels/PlanetFinal.tscn"
config/icon="res://icon.png"

[autoload]

Pivot="*res://Elements/Pivot.gd"

[display]

window/size/width=1280
window/size/height=720

[input]

ui_end={
"deadzone": 0.5,
"events": [ Object(InputEventKey,"resource_local_to_scene":false,"resource_name":"","device":0,"alt":false,"shift":false,"control":false,"meta":false,"command":false,"pressed":false,"scancode":16777230,"unicode":0,"echo":false,"script":null)
 ]
}
Forward={
"deadzone": 0.5,
"events": [ Object(InputEventKey,"resource_local_to_scene":false,"resource_name":"","device":0,"alt":false,"shift":false,"control":false,"meta":false,"command":false,"pressed":false,"scancode":87,"unicode":0,"echo":false,"script":null)
 ]
}
Left={
"deadzone": 0.5,
"events": [ Object(InputEventKey,"resource_local_to_scene":false,"resource_name":"","device":0,"alt":false,"shift":false,"control":false,"meta":false,"command":false,"pressed":false,"scancode":65,"unicode":0,"echo":false,"script":null)
 ]
}
Right={
"deadzone": 0.5,
"events": [ Object(InputEventKey,"resource_local_to_scene":false,"resource_name":"","device":0,"alt":false,"shift":false,"control":false,"meta":false,"command":false,"pressed":false,"scancode":68,"unicode":0,"echo":false,"script":null)
 ]
}
Back={
"deadzone": 0.5,
"events": [ Object(InputEventKey,"resource_local_to_scene":false,"resource_name":"","device":0,"alt":false,"shift":false,"control":false,"meta":false,"command":false,"pressed":false,"scancode":83,"unicode":0,"echo":false,"script":null)
 ]
}
Jump={
"deadzone": 0.5,
"events": [ Object(InputEventKey,"resource_local_to_scene":false,"resource_name":"","device":0,"alt":false,"shift":false,"control":false,"meta":false,"command":false,"pressed":false,"scancode":32,"unicode":0,"echo":false,"script":null)
 ]
}
Crouch={
"deadzone": 0.5,
"events": [ Object(InputEventKey,"resource_local_to_scene":false,"resource_name":"","device":0,"alt":false,"shift":false,"control":false,"meta":false,"command":false,"pressed":false,"scancode":67,"unicode":0,"echo":false,"script":null)
 ]
}
Sprint={
"deadzone": 0.5,
"events": [ Object(InputEventKey,"resource_local_to_scene":false,"resource_name":"","device":0,"alt":false,"shift":false,"control":false,"meta":false,"command":false,"pressed":false,"scancode":16777237,"unicode":0,"echo":false,"script":null)
 ]
}
pauseMenu={
"deadzone": 0.5,
"events": [ Object(InputEventKey,"resource_local_to_scene":false,"resource_name":"","device":0,"alt":false,"shift":false,"control":false,"meta":false,"command":false,"pressed":false,"scancode":16777217,"unicode":0,"echo":false,"script":null)
 ]
}
debug={
"deadzone": 0.5,
"events": [ Object(InputEventKey,"resource_local_to_scene":false,"resource_name":"","device":0,"alt":false,"shift":false,"control":false,"meta":false,"command":false,"pressed":false,"scancode":16777255,"unicode":0,"echo":false,"script":null)
 ]
}
Shoot={
"deadzone": 0.5,
"events": [ Object(InputEventMouseButton,"resource_local_to_scene":false,"resource_name":"","device":-1,"alt":false,"shift":false,"control":false,"meta":false,"command":false,"button_mask":0,"position":Vector2( 0, 0 ),"global_position":Vector2( 0, 0 ),"factor":1.0,"button_index":1,"pressed":false,"doubleclick":false,"script":null)
 ]
}
HideUI={
"deadzone": 0.5,
"events": [ Object(InputEventKey,"resource_local_to_scene":false,"resource_name":"","device":0,"alt":false,"shift":false,"control":false,"meta":false,"command":false,"pressed":false,"scancode":48,"unicode":0,"echo":false,"script":null)
 ]
}

[layer_names]

3d_physics/layer_1="physical"
3d_physics/layer_2="pawn"
3d_physics/layer_3="pawnDetector"

[physics]

3d/default_gravity=0.0

[rendering]

quality/filters/msaa=2
