[gd_scene load_steps=2 format=2]

[ext_resource path="res://Assets/Enemies/gltf/geo.buzz.glb" type="PackedScene" id=1]

[node name="geobuzz" instance=ExtResource( 1 )]

[node name="geobuzzengineFLexhaust" parent="_engineMountFL" index="1"]
visible = false

[node name="geobuzzengineFRexhaust" parent="_engineMountFR" index="1"]
visible = false

[node name="geobuzzengineBRexhaust" parent="_engineMountBL" index="1"]
visible = false

[node name="geobuzzengineBLexhaust" parent="_engineMountBR" index="0"]
visible = false
