[gd_scene load_steps=3 format=2]

[ext_resource path="res://Elements/FlyCamera.gd" type="Script" id=1]
[ext_resource path="res://Elements/UI/KeyboardInput.gd" type="Script" id=2]

[node name="FlyCam" type="Camera"]
transform = Transform( 1, 0, 0, 0, 1, 0, 0, 0, 1, 0, 130, 0 )
far = 2048.0
script = ExtResource( 1 )
controlsPath = NodePath("Controls")

[node name="Controls" type="Node" parent="."]
script = ExtResource( 2 )
